Partial Information Kernel-Damping — kernel_entropy • ffp
…
    De Santis, G., R. Litterman, A. Vesval, and K. Winkelmann, 2003,
Covariance matrix estimation, Modern investment management: an equilibrium
approach, Wiley.

    Examples

ret <- diff(log(EuStockMarkets[ , 1]))
mean <- -0.01 # scenarios around -1%
sigma <- var(diff(ret))

kernel_entropy(ret, mean, sigma)

#> # Fully-Flexible Probability 
#> # A tibble: 1,859 x 2
#>    .rowid       .p
#>     <int>    <dbl>
#>  1      1 0.000926
#>  2      2 0.000600
#>  3      3 0.000154
#>  4      4 0.000468
#>  5      5 0.000614
#>  6      6 0.000104
#>  7      7 0.000219
#>  8      8 0.000519
#>  9      9 0.000205
#> 10     10 0.000350
#> # ... with 1,849 more rows
…
