Replicating Meucci's Paper • ffp
…
      Source: vignettes/Replicating-Meucci-Paper.Rmd
      Replicating-Meucci-Paper.Rmd

Consider, as in Historical Scenarios with Fully Flexible Probabilities, that we would like to price and stress-test a book of long-short call options, in which the underlying is the S&P500 index. The db_tbl dataset contains information on the interest-rates, US stock market and implied volatility. It also provides \(6\) macroeconomic variables that can be used to filter the state of the economy.

Prepare the Data

# Load Packages
library("dplyr")  # Data Manipulation and pipe (%>%) 
library("ffp")    # Fully-Flexible Probabilities
# Load Data
data("db_tbl")
db_tbl
#> # A tibble: 1,083 × 9
#>    SWAP2YR SWAP10YR `CDXIG OTR` `S&P 500` `Dollar Index` Crude  Gold   VIX
#>      <dbl>    <dbl>       <dbl>     <dbl>          <dbl> <dbl> <dbl> <dbl>
#>  1    4.13     4.48        52.4     1218.           86.3  67.6  445.  13.6
#>  2    4.18     4.52        52.6     1233.           86.6  66.0  446.  12.9
#>  3    4.24     4.58        50.8     1236.           87.0  64.4  446   12.5
#>  4    4.26     4.58        51.1     1232.           87.0  64.5  448.  12.9
#>  5    4.25     4.55        50.5     1241.           86.9  64.1  450   12.0
#>  6    4.29     4.60        49.8     1241.           87.7  63.3  451.  11.6
#>  7    4.24     4.56        49.7     1231.           87.8  63.1  447   12.4
#>  8    4.25     4.59        49.5     1227.           87.7  65.1  451.  12.9
#>  9    4.28     4.64        49.3     1228.           88.1  64.8  456.  12.5
#> 10    4.37     4.72        50       1238.           88.1  63    460.  11.2
#> # … with 1,073 more rows, and 1 more variable: `10YR Inflation Swap Rate` <dbl>
…
# Last observation for the underlying (SP500)
S_0   <- last_obs[["S&P 500"]]  
# Last observation for the implied-volatility
vol_0 <- last_obs[["VIX"]]
# Last observation for the risk-free rate
rf_0  <- last_obs[["SWAP10YR"]] 

# Gererate Paths from Historical Scenarios
paths <- purrr::map2_df(.x = last_obs, .y = invariants, .f = ~ .x * exp(.y)) %>%
  dplyr::rename(S_T = `S&P 500`, vol_T = `VIX`, rf_T = `SWAP10YR`) %>% 
  tibble::rowid_to_column(var = "id") 
paths
#> # A tibble: 1,082 × 4
#>       id vol_T  rf_T   S_T
#>    <int> <dbl> <dbl> <dbl>
#>  1     1  16.3  3.85 1188.
#>  2     2  16.6  3.86 1176.
#>  3     3  17.7  3.82 1169.
#>  4     4  15.9  3.79 1183.
#>  5     5  16.7  3.86 1172.
#>  6     6  18.2  3.78 1164.
#>  7     7  17.8  3.84 1169.
#>  8     8  16.6  3.86 1174.
#>  9     9  15.4  3.88 1183.
#> 10    10  18.5  3.79 1167.
#> # … with 1,072 more rows
…
  dplyr::select(id, panel, dplyr::everything()) %>%
  # portfolio scenarios
  dplyr::mutate(
    # Pricing
    call_open  = call_price(p = S_0, k = K, r = rf_0, t = Expiry, s = vol_0),
    call_close = call_price(p = S_T, k = K, r = rf_T, t = Expiry - 1 / 252, s = vol_T),
    pnl        = call_close - call_open,
    # Units to buy and sell
    u          = rep(c(1, -1), each = nrow(paths) * 10)
  ) %>%
  # Aggregate by "day" (here represented by the "id" variable)
  dplyr::group_by(id) %>%
  dplyr::summarise(pnl_u = as.double(pnl %*% u))
pnl
#> # A tibble: 1,082 × 2
#>       id pnl_u
#>    <int> <dbl>
#>  1     1 533. 
#>  2     2 482. 
#>  3     3 256. 
#>  4     4 687. 
#>  5     5 473. 
#>  6     6 169. 
#>  7     7 210. 
#>  8     8 491. 
#>  9     9 773. 
#> 10    10  99.1
#> # … with 1,072 more rows
…
